// Jest Snapshot v1, https://goo.gl/fbAQLP

exports[`render snapshot of a rendered element 1`] = `"<select name=\\"car-name\\" required><option><span class=\\"span-class-test\\">Jet Black</span></option><option>Ford Tough</option></select>"`;
